03_Kielczewski_Taylor
…
kelp_data <- read_csv("https://github.com/kelpecosystems/observational_data/blob/master/cleaned_data/keen_cover.csv?raw=true")

Rows: 6222 Columns: 21
── Column specification ────────────────────────────────────────────────────────
Delimiter: ","
chr (17): NETWORK, PI, SITE, TRANSECT, SP_CODE, GROUP, DIVISION.FAMILY, COMM...
dbl  (4): YEAR, MONTH, DAY, PERCENT_COVER

ℹ Use `spec()` to retrieve the full column specification for this data.
ℹ Specify the column types or set `show_col_types = FALSE` to quiet this message.

kelp_data

# A tibble: 6,222 × 21
   NETWORK  PI      YEAR MONTH   DAY SITE   TRANSECT SP_CODE PERCENT_COVER GROUP
   <chr>    <chr>  <dbl> <dbl> <dbl> <chr>  <chr>    <chr>           <dbl> <chr>
 1 KEEN ONE Byrnes  2014     7     8 Baker… 1        ANSP             2.5  Inve…
 2 KEEN ONE Byrnes  2014     7     8 Baker… 1        B                7.5  Subs…
 3 KEEN ONE Byrnes  2014     7     8 Baker… 1        BA               2.5  Inve…
 4 KEEN ONE Byrnes  2014     7     8 Baker… 1        BL              10    Subs…
 5 KEEN ONE Byrnes  2014     7     8 Baker… 1        BM              21.2  Subs…
 6 KEEN ONE Byrnes  2014     7     8 Baker… 1        BOSC             1.25 Inve…
 7 KEEN ONE Byrnes  2014     7     8 Baker… 1        BOVI             1.25 Inve…
 8 KEEN ONE Byrnes  2014     7     8 Baker… 1        BS              18.8  Subs…
 9 KEEN ONE Byrnes  2014     7     8 Baker… 1        C               21.2  Subs…
10 KEEN ONE Byrnes  2014     7     8 Baker… 1        CF               7.5  Inve…
# ℹ 6,212 more rows
# ℹ 11 more variables: DIVISION.FAMILY <chr>, COMMON.DIVISION.NAME <chr>,
#   SIZE <chr>, COMMON.NAME <chr>, KINGDOM <chr>, PHYLUM <chr>, CLASS <chr>,
#   ORDER <chr>, FAMILY <chr>, GENUS <chr>, SPECIES <chr>
…
Rows: 6222 Columns: 21
── Column specification ────────────────────────────────────────────────────────
Delimiter: ","
chr (17): NETWORK, PI, SITE, TRANSECT, SP_CODE, GROUP, DIVISION.FAMILY, COMM...
dbl  (4): YEAR, MONTH, DAY, PERCENT_COVER

ℹ Use `spec()` to retrieve the full column specification for this data.
ℹ Specify the column types or set `show_col_types = FALSE` to quiet this message.

Formatting Data

print(kelp_data)

# A tibble: 6,222 × 21
   NETWORK  PI      YEAR MONTH   DAY SITE   TRANSECT SP_CODE PERCENT_COVER GROUP
   <chr>    <chr>  <dbl> <dbl> <dbl> <chr>  <chr>    <chr>           <dbl> <chr>
 1 KEEN ONE Byrnes  2014     7     8 Baker… 1        ANSP             2.5  Inve…
 2 KEEN ONE Byrnes  2014     7     8 Baker… 1        B                7.5  Subs…
 3 KEEN ONE Byrnes  2014     7     8 Baker… 1        BA               2.5  Inve…
 4 KEEN ONE Byrnes  2014     7     8 Baker… 1        BL              10    Subs…
 5 KEEN ONE Byrnes  2014     7     8 Baker… 1        BM              21.2  Subs…
 6 KEEN ONE Byrnes  2014     7     8 Baker… 1        BOSC             1.25 Inve…
 7 KEEN ONE Byrnes  2014     7     8 Baker… 1        BOVI             1.25 Inve…
 8 KEEN ONE Byrnes  2014     7     8 Baker… 1        BS              18.8  Subs…
 9 KEEN ONE Byrnes  2014     7     8 Baker… 1        C               21.2  Subs…
10 KEEN ONE Byrnes  2014     7     8 Baker… 1        CF               7.5  Inve…
# ℹ 6,212 more rows
# ℹ 11 more variables: DIVISION.FAMILY <chr>, COMMON.DIVISION.NAME <chr>,
#   SIZE <chr>, COMMON.NAME <chr>, KINGDOM <chr>, PHYLUM <chr>, CLASS <chr>,
#   ORDER <chr>, FAMILY <chr>, GENUS <chr>, SPECIES <chr>
…
Let’s look at kelp!

4a

four_a <- kelp_data |> 
  select(YEAR,SITE,TRANSECT,PERCENT_COVER,FAMILY,SPECIES)
four_a

# A tibble: 6,222 × 6
    YEAR SITE        TRANSECT PERCENT_COVER FAMILY        SPECIES               
   <dbl> <chr>       <chr>            <dbl> <chr>         <chr>                 
 1  2014 Baker North 1                 2.5  Anomiidae     Anomia                
 2  2014 Baker North 1                 7.5  <NA>          <NA>                  
 3  2014 Baker North 1                 2.5  <NA>          Barnacle              
 4  2014 Baker North 1                10    <NA>          <NA>                  
 5  2014 Baker North 1                21.2  <NA>          <NA>                  
 6  2014 Baker North 1                 1.25 Styelidae     Botryllus schlosseri  
 7  2014 Baker North 1                 1.25 Styelidae     Botrylloides violaceus
 8  2014 Baker North 1                18.8  <NA>          <NA>                  
 9  2014 Baker North 1                21.2  <NA>          <NA>                  
10  2014 Baker North 1                 7.5  Calyptraeidae Crepidula fornicata   
# ℹ 6,212 more rows

4b

four_b <- four_a |> 
  filter(FAMILY=="Laminariaceae") |> 
  select(-FAMILY)

four_b

# A tibble: 345 × 5
    YEAR SITE        TRANSECT PERCENT_COVER SPECIES             
   <dbl> <chr>       <chr>            <dbl> <chr>               
 1  2014 Baker North 1                 77.5 Saccharina latissima
 2  2014 Baker North 2                 86.2 Saccharina latissima
 3  2014 Baker North 3                 31.2 Saccharina latissima
 4  2014 Baker North 3                  7.5 Saccharina latissima
 5  2014 Baker North 4                 55   Saccharina latissima
 6  2014 Baker South 3                 36.2 Saccharina latissima
 7  2014 Baker South 3                 22.5 Saccharina latissima
 8  2014 Baker South 4                 32.5 Saccharina latissima
 9  2014 Baker South 4                 11.2 Saccharina latissima
10  2014 Baker South 1                 35   Saccharina latissima
# ℹ 335 more rows
…
Yes, there are more than one measurement per species per transect in some cases.

4d

four_d <- four_b |> 
  group_by(YEAR, SITE, TRANSECT, SPECIES) |> 
  summarise(percent_cover = sum(PERCENT_COVER))

`summarise()` has grouped output by 'YEAR', 'SITE', 'TRANSECT'. You can
override using the `.groups` argument.

four_d

# A tibble: 290 × 5
# Groups:   YEAR, SITE, TRANSECT [238]
    YEAR SITE        TRANSECT SPECIES              percent_cover
   <dbl> <chr>       <chr>    <chr>                        <dbl>
 1  2014 Baker North 1        Saccharina latissima         77.5 
 2  2014 Baker North 2        Saccharina latissima         86.2 
 3  2014 Baker North 3        Saccharina latissima         38.8 
 4  2014 Baker North 4        Saccharina latissima         55   
 5  2014 Baker South 1        Saccharina latissima         50   
 6  2014 Baker South 2        Saccharina latissima         43.8 
 7  2014 Baker South 3        Saccharina latissima         58.8 
 8  2014 Baker South 4        Saccharina latissima         43.8 
 9  2014 Calf Island 1        Laminaria digitata            3.75
10  2014 Calf Island 1        Saccharina latissima         57.5 
# ℹ 280 more rows
…
There is much more Saccharina latissima present in the transects. Overall, both kelp species experienced a decline, with the exception of S. latissimia in the NE Appledore site.

Wide Relationships

5a

four_d |> 
  pivot_wider(names_from = SPECIES,values_from = percent_cover, values_fill = 0)

# A tibble: 238 × 5
# Groups:   YEAR, SITE, TRANSECT [238]
    YEAR SITE        TRANSECT `Saccharina latissima` `Laminaria digitata`
   <dbl> <chr>       <chr>                     <dbl>                <dbl>
 1  2014 Baker North 1                          77.5                 0   
 2  2014 Baker North 2                          86.2                 0   
 3  2014 Baker North 3                          38.8                 0   
 4  2014 Baker North 4                          55                   0   
 5  2014 Baker South 1                          50                   0   
 6  2014 Baker South 2                          43.8                 0   
 7  2014 Baker South 3                          58.8                 0   
 8  2014 Baker South 4                          43.8                 0   
 9  2014 Calf Island 1                          57.5                 3.75
10  2014 Calf Island 2                          56.2                 3.75
# ℹ 228 more rows
…
