Taylor Kielczewski Midterm, 2025
…
covid <- read_csv('https://raw.githubusercontent.com/CSSEGISandData/COVID-19/refs/heads/master/csse_covid_19_data/csse_covid_19_time_series/time_series_covid19_confirmed_US.csv')

Rows: 3342 Columns: 1154
── Column specification ────────────────────────────────────────────────────────
Delimiter: ","
chr    (6): iso2, iso3, Admin2, Province_State, Country_Region, Combined_Key
dbl (1148): UID, code3, FIPS, Lat, Long_, 1/22/20, 1/23/20, 1/24/20, 1/25/20...

ℹ Use `spec()` to retrieve the full column specification for this data.
ℹ Specify the column types or set `show_col_types = FALSE` to quiet this message.

covid

# A tibble: 3,342 × 1,154
        UID iso2  iso3  code3  FIPS Admin2   Province_State Country_Region   Lat
      <dbl> <chr> <chr> <dbl> <dbl> <chr>    <chr>          <chr>          <dbl>
 1 84001001 US    USA     840  1001 Autauga  Alabama        US              32.5
 2 84001003 US    USA     840  1003 Baldwin  Alabama        US              30.7
 3 84001005 US    USA     840  1005 Barbour  Alabama        US              31.9
 4 84001007 US    USA     840  1007 Bibb     Alabama        US              33.0
 5 84001009 US    USA     840  1009 Blount   Alabama        US              34.0
 6 84001011 US    USA     840  1011 Bullock  Alabama        US              32.1
 7 84001013 US    USA     840  1013 Butler   Alabama        US              31.8
 8 84001015 US    USA     840  1015 Calhoun  Alabama        US              33.8
 9 84001017 US    USA     840  1017 Chambers Alabama        US              32.9
10 84001019 US    USA     840  1019 Cherokee Alabama        US              34.2
# ℹ 3,332 more rows
# ℹ 1,145 more variables: Long_ <dbl>, Combined_Key <chr>, `1/22/20` <dbl>,
#   `1/23/20` <dbl>, `1/24/20` <dbl>, `1/25/20` <dbl>, `1/26/20` <dbl>,
#   `1/27/20` <dbl>, `1/28/20` <dbl>, `1/29/20` <dbl>, `1/30/20` <dbl>,
#   `1/31/20` <dbl>, `2/1/20` <dbl>, `2/2/20` <dbl>, `2/3/20` <dbl>,
#   `2/4/20` <dbl>, `2/5/20` <dbl>, `2/6/20` <dbl>, `2/7/20` <dbl>,
#   `2/8/20` <dbl>, `2/9/20` <dbl>, `2/10/20` <dbl>, `2/11/20` <dbl>, …
…
# columns for date, new cases, cumulative cases
  MA_long <- MA_long |> 
    mutate(
      date = as.character(date),
      date =mdy(date)) |> 
    mutate(new_cases = cumulative_cases - lag(cumulative_cases)) |> 
    select(date, new_cases, cumulative_cases) |> 
    mutate_all(~replace(., is.na(.), 0))
  
  MA_long

# A tibble: 1,143 × 3
   date       new_cases cumulative_cases
   <date>         <dbl>            <dbl>
 1 2020-01-22         0                0
 2 2020-01-23         0                0
 3 2020-01-24         0                0
 4 2020-01-25         0                0
 5 2020-01-26         0                0
 6 2020-01-27         0                0
 7 2020-01-28         0                0
 8 2020-01-29         1                1
 9 2020-01-30         0                1
10 2020-01-31         0                1
# ℹ 1,133 more rows
…
Correlation matrix not shown by default, as p = 42 > 12.
Use print(x, correlation=TRUE)  or
    vcov(x)        if you need it

tidy(quail_mod)

# A tibble: 44 × 6
   effect group term        estimate std.error statistic
   <chr>  <chr> <chr>          <dbl>     <dbl>     <dbl>
 1 fixed  <NA>  (Intercept)   19.7       0.522    37.8  
 2 fixed  <NA>  age7           0.452     0.568     0.795
 3 fixed  <NA>  age9           2.70      0.568     4.75 
 4 fixed  <NA>  age11          4.62      0.568     8.13 
 5 fixed  <NA>  age13          5.46      0.587     9.31 
 6 fixed  <NA>  age15          6.64      0.587    11.3  
 7 fixed  <NA>  age17          8.44      0.587    14.4  
 8 fixed  <NA>  age19          9.68      0.587    16.5  
 9 fixed  <NA>  age21         11.2       0.587    19.1  
10 fixed  <NA>  age23         12.1       0.587    20.6  
# ℹ 34 more rows
…
# 1. load the data 
rhiz <- read_csv("data/greenhouse_inoculation_expt_2010.csv")

Rows: 240 Columns: 16
── Column specification ────────────────────────────────────────────────────────
Delimiter: ","
chr  (4): rhizobia, rhiz_region, plant_pop, date_planted
dbl (12): rack, bench, bench_pos, rack_pos, in_leaf_num, in_height, leaf_mar...

ℹ Use `spec()` to retrieve the full column specification for this data.
ℹ Specify the column types or set `show_col_types = FALSE` to quiet this message.

rhiz

# A tibble: 240 × 16
    rack bench bench_pos rack_pos rhizobia rhiz_region plant_pop date_planted
   <dbl> <dbl>     <dbl>    <dbl> <chr>    <chr>       <chr>     <chr>       
 1     1     1         1        1 rSCWRS   edge        KZA       28-Jan-10   
 2     1     1         1        2 rSCWRS   edge        GCD       28-Jan-10   
 3     1     1         1        3 rSCWRS   edge        TYS       28-Jan-10   
 4     1     1         1        4 rSCWRS   edge        CRA       31-Jan-10   
 5     1     1         1        5 rSCWRS   edge        CRA       31-Jan-10   
 6     1     1         1        6 rSCWRS   edge        TYS       28-Jan-10   
 7     1     1         1        7 rSCWRS   edge        GCD       28-Jan-10   
 8     1     1         1        8 rSCWRS   edge        KZA       28-Jan-10   
 9     2     1         2        1 rACNW    beyond      GCD       8-Feb-10    
10     2     1         2        2 rACNW    beyond      TYS       1-Feb-10    
# ℹ 230 more rows
# ℹ 8 more variables: in_leaf_num <dbl>, in_height <dbl>, leaf_mar12 <dbl>,
#   height_mar12 <dbl>, branch_mar12 <dbl>, flower_mar23 <dbl>,
#   height_apr20 <dbl>, nodule_count <dbl>
…
lambda <- 1:30
q025 <- qpois(0.025, lambda = lambda)

q975 <- qpois(0.975, lambda = lambda)

poisson <- tibble(
  lambda = lambda,
  lower = q025,
  upper = q975)

poisson

# A tibble: 30 × 3
   lambda lower upper
    <int> <dbl> <dbl>
 1      1     0     3
 2      2     0     5
 3      3     0     7
 4      4     1     8
 5      5     1    10
 6      6     2    11
 7      7     2    13
 8      8     3    14
 9      9     4    15
10     10     4    17
# ℹ 20 more rows
…
