05_Kielczewski_Taylor
…
Reading Data

grey_matter <- read_csv("data/chap16q15LanguageGreyMatter.csv")

Rows: 22 Columns: 2
── Column specification ────────────────────────────────────────────────────────
Delimiter: ","
dbl (2): proficiency, greymatter

ℹ Use `spec()` to retrieve the full column specification for this data.
ℹ Specify the column types or set `show_col_types = FALSE` to quiet this message.

grey_matter

# A tibble: 22 × 2
   proficiency greymatter
         <dbl>      <dbl>
 1        0.26     -0.07 
 2        0.44     -0.08 
 3        0.89     -0.008
 4        1.26     -0.009
 5        1.69     -0.023
 6        1.97     -0.009
 7        1.98     -0.036
 8        2.24     -0.029
 9        2.24     -0.008
10        2.58     -0.023
# ℹ 12 more rows
…
