Homework 6 - Taylor Kielczewski
…
# Loading Data
detritivore <- read_csv("data/c_burial_sims.csv")

Rows: 100 Columns: 4
── Column specification ────────────────────────────────────────────────────────
Delimiter: ","
dbl (4): sink_rate, microbial_abundance, detritivore_biomass, net_carbon_seq...

ℹ Use `spec()` to retrieve the full column specification for this data.
ℹ Specify the column types or set `show_col_types = FALSE` to quiet this message.

tibble(detritivore)

# A tibble: 100 × 4
   sink_rate microbial_abundance detritivore_biomass net_carbon_sequestration
       <dbl>               <dbl>               <dbl>                    <dbl>
 1     0.617              3.43                 3.21                     5.93 
 2     3.89               0.119                3.69                     7.25 
 3     3.33               0.380                2.56                     0.424
 4     0.402              0                    3.77                    -6.09 
 5     2.38               0.422                1.50                    -0.182
 6     0.584              3.74                 3.30                     6.96 
 7     3.44               0.0614               3.29                     3.79 
 8     2.98               3.06                 2.62                    -1.89 
 9     0.895              1.22                 0.425                   -5.28 
10     0.701              2.34                 3.52                     1.82 
# ℹ 90 more rows
…
\(\beta_0\) = intercept, the expected sequestration when all predictors are at their means

\(\beta_1\) = effects of sinking rate when other predictors are at their mean \(\beta_2\) = effects of microbial abundance when other predictors are at their mean \(\beta_3\) = effects of detritivore biomass when other predictors are at their mean

\(\beta_4\) = combined effects of sinking rate and microbial abundance \(\beta_5\) = combined effects of sinking rate and detritivore biomass \(\beta_6\) = combined effects of detritivore biomass and microbial abundance

\(\beta_7\) = combined effects of all three predictors

3c

det_predict <- augment(centered_model, interval="confidence")
det_predict

# A tibble: 100 × 12
   net_carbon_sequestration sink_c microbe_c detriti_c .fitted .lower .upper
                      <dbl>  <dbl>     <dbl>     <dbl>   <dbl>  <dbl>  <dbl>
 1                    5.93  -1.42      1.65      1.04     4.97   4.41   5.53
 2                    7.25   1.85     -1.66      1.52     5.98   5.16   6.80
 3                    0.424  1.29     -1.40      0.395    1.66   1.28   2.05
 4                   -6.09  -1.64     -1.78      1.60    -7.11  -8.03  -6.18
 5                   -0.182  0.338    -1.36     -0.666   -1.59  -1.93  -1.26
 6                    6.96  -1.45      1.96      1.13     6.51   5.84   7.17
 7                    3.79   1.40     -1.72      1.12     3.79   3.20   4.38
 8                   -1.89   0.938     1.28      0.452   -1.42  -1.80  -1.03
 9                   -5.28  -1.14     -0.559    -1.74    -5.00  -5.45  -4.55
10                    1.82  -1.34      0.560     1.36     2.11   1.69   2.52
# ℹ 90 more rows
# ℹ 5 more variables: .resid <dbl>, .hat <dbl>, .sigma <dbl>, .cooksd <dbl>,
#   .std.resid <dbl>
…
